${AnsiColor.BRIGHT_YELLOW}
     _______.  ______  __    __    ______     ______    __         .___  ___.      ___      .__   __.      ___        _______  _______ .___  ___.  _______ .__   __. .___________.        _______.____    ____      _______..___________. _______ .___  ___.
    /       | /      ||  |  |  |  /  __  \   /  __  \  |  |        |   \/   |     /   \     |  \ |  |     /   \      /  _____||   ____||   \/   | |   ____||  \ |  | |           |       /       |\   \  /   /     /       ||           ||   ____||   \/   | 
   |   (----`|  ,----'|  |__|  | |  |  |  | |  |  |  | |  |        |  \  /  |    /  ^  \    |   \|  |    /  ^  \    |  |  __  |  |__   |  \  /  | |  |__   |   \|  | `---|  |----`      |   (----` \   \/   /     |   (----``---|  |----`|  |__   |  \  /  | 
    \   \    |  |     |   __   | |  |  |  | |  |  |  | |  |        |  |\/|  |   /  /_\  \   |  . `  |   /  /_\  \   |  | |_ | |   __|  |  |\/|  | |   __|  |  . `  |     |  |            \   \      \_    _/       \   \        |  |     |   __|  |  |\/|  | 
.----)   |   |  `----.|  |  |  | |  `--'  | |  `--'  | |  `----.   |  |  |  |  /  _____  \  |  |\   |  /  _____  \  |  |__| | |  |____ |  |  |  | |  |____ |  |\   |     |  |        .----)   |       |  |     .----)   |       |  |     |  |____ |  |  |  | 
|_______/     \______||__|  |__|  \______/   \______/  |_______|   |__|  |__| /__/     \__\ |__| \__| /__/     \__\  \______| |_______||__|  |__| |_______||__| \__|     |__|        |_______/        |__|     |_______/        |__|     |_______||__|  |__| 
                                                                                                                                                                                                                                                             
